<?xml version="1.0" encoding="utf-8"?>
<!-- Generator: Adobe Illustrator 25.2.3, SVG Export Plug-In . SVG Version: 6.00 Build 0)  -->
<svg version="1.1" xmlns="http://www.w3.org/2000/svg" xmlns:xlink="http://www.w3.org/1999/xlink" x="0px" y="0px"
	 viewBox="0 0 324.2 164" style="enable-background:new 0 0 324.2 164;" xml:space="preserve">
<style type="text/css">
	.st0{display:none;}
	.st1{fill:#283279;}
	.st2{fill:#FFFFFF;}
</style>
<g id="Guides" class="st0">
</g>
<g id="Artwork">
	<g>
		<path class="st1" d="M87,79.6l-4.4,25.7c-0.9,4.6-4,5.9-6.7,5.9H55.7l8.5-47.1c-8.5-3.9-17.2-6.4-24.2-6.4c-6.6,0-12,1.8-15.5,6.1
			c-2.5,3-3.8,6.8-3.8,11.3c0,13.4,10.5,32,28.6,47.1C65.4,135.5,83.1,143,96,143c6.4,0,11.6-2,15-5.9c2.7-3,3.7-7,3.7-11.4
			C114.7,112.7,104.1,94.4,87,79.6L87,79.6z"/>
		<path class="st2" d="M50.6,29.8c-3.2,0-5.9,2.2-6.6,5.5l-2.9,15.5h25.5l-10.9,60.3H76c2.7,0,5.8-1.3,6.7-5.9l9.3-54.5h18.3
			c3.2,0,5.9-2.1,6.6-5.5l2.9-15.5H50.6L50.6,29.8z"/>
		<g>
			<path class="st2" d="M172.2,64.2V48.3h-16.5v15.9h-4.3V29.8h4.3v14.4h16.5V29.8h4.3v34.4H172.2z"/>
			<path class="st2" d="M202.9,53.3h-17.4c0,2.2,0.9,4.7,2.4,6.2c1.1,1.1,2.6,1.7,4.5,1.7c1.9,0,3.5-0.5,4.6-1.6
				c0.7-0.7,1.1-1.4,1.5-2.7h4c-0.3,2.4-1.8,4.7-3.8,6.1c-1.7,1.2-3.9,1.8-6.3,1.8c-3.4,0-6.3-1.5-8.2-3.7c-2-2.4-3.1-5.6-3.1-9.1
				c0-3,0.5-5.6,1.9-7.9c1.7-3,5-5.1,9.3-5.1c3.2,0,5.7,1.2,7.5,3.2c2,2.2,3.2,5.3,3.1,8.6L202.9,53.3z M197.2,44.8
				c-1-1.4-2.7-2.2-4.9-2.2c-4.5,0-6.6,3.6-6.7,7.2h13.1C198.7,47.9,198.2,46.1,197.2,44.8z"/>
			<path class="st2" d="M227.3,64.5c-2.2,0-3.5-1.6-3.5-3.7h-0.1c-1.4,2.5-4.5,4-7.9,4c-5.6,0-8.4-3.8-8.4-7.6c0-3.2,2-7.3,8.7-7.7
				l7.5-0.4v-1.8c0-1.2-0.1-2.7-1.3-3.7c-0.8-0.8-2-1.3-4-1.3c-2.2,0-3.6,0.6-4.5,1.5c-0.8,0.8-1.2,1.7-1.2,3h-4
				c0-2.2,0.9-3.8,2.1-5.1c1.6-1.7,4.6-2.6,7.6-2.6c4.8,0,7.5,2,8.6,4.7c0.5,1.1,0.7,2.4,0.7,3.8v11.9c0,1.3,0.5,1.6,1.4,1.6
				c0.4,0,1.1-0.1,1.1-0.1V64C229.2,64.4,228.3,64.5,227.3,64.5z M223.5,52.4l-6.6,0.4c-2.5,0.1-5.4,1.3-5.4,4.4
				c0,2.2,1.4,4.2,4.9,4.2c1.9,0,3.7-0.6,5-2c1.5-1.5,2.1-3.5,2.1-5.6V52.4z"/>
			<path class="st2" d="M240.3,64.5c-3.6,0-5.1-2.1-5.1-6V29.2h4.1v29.1c0,1.6,0.5,2.5,2.2,2.5c1.4,0,1.7,0,1.7,0v3.5
				C243.2,64.2,242.3,64.5,240.3,64.5z"/>
			<path class="st2" d="M257.2,64.5c-5.3,0-6.7-3.3-6.7-6.6V43.2h-4.8v-3.5h4.8v-6.3l4.1-1v7.2h7.3v3.5h-7.3v14.2
				c0,2.4,1,3.3,3.3,3.3c1.7,0,4.2-0.4,4.2-0.4v3.5C260.9,64.2,259.4,64.5,257.2,64.5z"/>
			<path class="st2" d="M283.5,64.2V48.6c0-3.7-1.5-5.9-5.4-5.9c-2.4,0-4.3,1.6-5.3,3.8c-0.8,1.8-0.9,4.4-0.9,6.3v11.4h-4.1v-35h4.1
				v13.7c1.5-2.5,4.4-3.9,7.2-3.9c5.6,0,8.5,3.3,8.5,9v16.2H283.5z"/>
		</g>
	</g>
	<g>
		<path class="st2" d="M244.4,97.4c0,4.4-1.9,6.7-5.7,6.7s-5.7-2.2-5.7-6.7V75.9h-8.5v21.6c0,9,5.4,14.5,14.2,14.5
			s14.2-5.6,14.2-14.5V75.9h-8.5V97.4z"/>
		<polygon class="st2" points="275.5,89.8 287.3,75.9 276.7,75.9 265.4,89 265.4,75.9 256.9,75.9 256.9,111.5 265.4,111.5 
			265.4,101.7 269.6,96.8 278,111.5 288,111.5 		"/>
	</g>
</g>
</svg>
