<?xml version="1.0" encoding="utf-8"?>
<!-- Generator: Adobe Illustrator 25.3.0, SVG Export Plug-In . SVG Version: 6.00 Build 0)  -->
<svg version="1.1" xmlns="http://www.w3.org/2000/svg" xmlns:xlink="http://www.w3.org/1999/xlink" x="0px" y="0px"
	 viewBox="0 0 324.24 164.04" style="enable-background:new 0 0 324.24 164.04;" xml:space="preserve">
<style type="text/css">
	.st0{display:none;}
	.st1{fill:#ED3694;}
	.st2{fill:#4A2161;}
</style>
<g id="Guides" class="st0">
</g>
<g id="Artwork">
	<path class="st1" d="M87.02,79.62l-4.38,25.72c-0.9,4.63-3.95,5.88-6.66,5.88H55.72l8.54-47.1c-8.53-3.9-17.24-6.45-24.17-6.45
		c-6.6,0-11.96,1.79-15.52,6.06c-2.51,3.04-3.76,6.79-3.76,11.25c0,13.39,10.53,31.97,28.56,47.13c16.07,13.4,33.75,20.9,46.62,20.9
		c6.42,0,11.6-1.97,14.99-5.89c2.68-3.04,3.74-6.98,3.74-11.43C114.72,112.68,104.11,94.44,87.02,79.62L87.02,79.62z"/>
	<g>
		<path class="st2" d="M50.63,29.81c-3.22,0-5.89,2.16-6.6,5.55l-2.85,15.52h25.49l-10.95,60.34h20.27c2.7,0,5.75-1.25,6.66-5.88
			l9.27-54.46h18.34c3.23,0,5.9-2.14,6.61-5.53l2.86-15.54H50.63L50.63,29.81z"/>
		<g>
			<path class="st2" d="M172.15,64.21V48.34h-16.5v15.87h-4.32v-34.4h4.32v14.36h16.5V29.81h4.32v34.4H172.15z"/>
			<path class="st2" d="M202.86,53.29h-17.37c0,2.23,0.87,4.66,2.38,6.16c1.12,1.12,2.62,1.75,4.51,1.75c1.94,0,3.54-0.53,4.56-1.6
				c0.68-0.68,1.12-1.36,1.46-2.67h4.03c-0.34,2.43-1.8,4.71-3.78,6.07c-1.75,1.16-3.93,1.84-6.26,1.84c-3.45,0-6.26-1.46-8.15-3.69
				c-2.04-2.38-3.06-5.63-3.06-9.12c0-2.96,0.53-5.58,1.89-7.86c1.75-2.96,5-5.14,9.27-5.14c3.15,0,5.68,1.21,7.47,3.15
				c1.99,2.18,3.15,5.34,3.11,8.64L202.86,53.29z M197.19,44.75c-1.02-1.36-2.67-2.23-4.85-2.23c-4.46,0-6.65,3.64-6.74,7.23h13.1
				C198.69,47.9,198.16,46.06,197.19,44.75z"/>
			<path class="st2" d="M227.32,64.55c-2.18,0-3.54-1.65-3.54-3.74h-0.1c-1.41,2.47-4.46,4.03-7.91,4.03
				c-5.63,0-8.44-3.78-8.44-7.57c0-3.15,2.04-7.28,8.73-7.67l7.47-0.44v-1.8c0-1.21-0.15-2.72-1.26-3.74
				c-0.82-0.78-2.04-1.26-4.03-1.26c-2.23,0-3.64,0.63-4.46,1.46c-0.78,0.78-1.21,1.75-1.21,2.96h-4.03
				c0.05-2.23,0.87-3.83,2.13-5.14c1.65-1.75,4.56-2.62,7.57-2.62c4.76,0,7.47,2.04,8.64,4.71c0.48,1.12,0.73,2.38,0.73,3.78V59.4
				c0,1.31,0.53,1.65,1.36,1.65c0.44,0,1.07-0.15,1.07-0.15v3.06C229.16,64.4,228.33,64.55,227.32,64.55z M223.53,52.37l-6.6,0.39
				c-2.47,0.15-5.39,1.31-5.39,4.42c0,2.18,1.36,4.22,4.85,4.22c1.89,0,3.74-0.63,5.05-1.99c1.46-1.5,2.09-3.54,2.09-5.58V52.37z"/>
			<path class="st2" d="M240.32,64.5c-3.59,0-5.14-2.13-5.14-6.02V29.17h4.12v29.07c0,1.65,0.53,2.52,2.23,2.52
				c1.36,0,1.7-0.05,1.7-0.05v3.49C243.23,64.21,242.31,64.5,240.32,64.5z"/>
			<path class="st2" d="M257.15,64.55c-5.29,0-6.74-3.35-6.74-6.65V43.2h-4.76v-3.54h4.76V33.4l4.12-0.97v7.23h7.28v3.54h-7.28
				v14.22c0,2.38,1.02,3.35,3.3,3.35c1.75,0,4.22-0.44,4.22-0.44v3.54C260.94,64.16,259.44,64.55,257.15,64.55z"/>
			<path class="st2" d="M283.45,64.21V48.63c0-3.69-1.5-5.87-5.39-5.87c-2.38,0-4.27,1.55-5.34,3.78c-0.83,1.8-0.87,4.37-0.87,6.26
				v11.4h-4.12V29.17h4.12v13.73c1.46-2.52,4.42-3.88,7.18-3.88c5.58,0,8.54,3.35,8.54,9.03v16.16H283.45z"/>
		</g>
		<g>
			<path class="st2" d="M244.38,97.44c0,4.43-1.92,6.67-5.7,6.67s-5.7-2.25-5.7-6.67V75.91h-8.51v21.62
				c0,8.97,5.44,14.54,14.21,14.54s14.21-5.57,14.21-14.54V75.91h-8.51V97.44z"/>
			<polygon class="st2" points="275.52,89.79 287.33,75.91 276.74,75.91 265.37,89.05 265.37,75.91 256.85,75.91 256.85,111.46 
				265.37,111.46 265.37,101.72 269.6,96.76 278.03,111.46 288,111.46 			"/>
		</g>
	</g>
</g>
</svg>
